<?xml version="1.0" encoding="iso-8859-1"?>
<!-- Generator: Adobe Illustrator 19.0.0, SVG Export Plug-In . SVG Version: 6.00 Build 0)  -->
<svg version="1.1" id="Capa_1" xmlns="http://www.w3.org/2000/svg" xmlns:xlink="http://www.w3.org/1999/xlink" x="0px" y="0px"
	 viewBox="0 0 490 490" style="enable-background:new 0 0 490 490;" xml:space="preserve">
<path d="M467.031,30.625H22.969C10.336,30.625,0,40.961,0,53.594v13.868v9.101v382.813h490V76.563v-9.101V53.594
	C490,40.961,479.664,30.625,467.031,30.625z M77.679,47.054c3.612,0,6.54,2.928,6.54,6.54c0,3.612-2.928,6.54-6.54,6.54
	c-3.612,0-6.539-2.928-6.539-6.54C71.139,49.982,74.067,47.054,77.679,47.054z M163.033,112.606v84.219H53.594v-84.219H163.033z
	 M38.441,60.133c-3.612,0-6.539-2.928-6.539-6.54c0-3.612,2.928-6.54,6.539-6.54c3.612,0,6.54,2.928,6.54,6.54
	C44.98,57.206,42.052,60.133,38.441,60.133z M51.52,53.594c0-3.612,2.928-6.54,6.539-6.54c3.612,0,6.54,2.928,6.54,6.54
	c0,3.612-2.928,6.54-6.54,6.54C54.448,60.133,51.52,57.206,51.52,53.594z M436.406,411.2H53.594v-7.656h382.812V411.2z
	 M436.406,388.231H53.595v-7.656h382.812V388.231z M436.406,365.263H53.595v-7.656h382.812V365.263z M436.406,342.294H53.595v-7.656
	h382.812V342.294z M436.406,319.325H53.595v-7.656h382.812V319.325z M436.406,296.356H53.595V288.7h382.812V296.356z
	 M436.406,273.388H53.595v-7.656h382.812V273.388z M436.406,250.419H53.595v-7.656h382.812V250.419z M436.406,227.45H53.595v-7.656
	h382.812V227.45z M186.452,196.825v-84.219h112.141v84.219H186.452z M436.406,196.825H322.791v-84.219h113.616V196.825z
	 M424.922,65.078H141.641c-6.316,0-11.484-5.168-11.484-11.484c0-6.316,5.168-11.484,11.484-11.484h283.281
	c6.316,0,11.484,5.168,11.484,11.484C436.406,59.91,431.238,65.078,424.922,65.078z"/>
<g>
</g>
<g>
</g>
<g>
</g>
<g>
</g>
<g>
</g>
<g>
</g>
<g>
</g>
<g>
</g>
<g>
</g>
<g>
</g>
<g>
</g>
<g>
</g>
<g>
</g>
<g>
</g>
<g>
</g>
</svg>
