%!PS-Adobe-3.0 EPSF-3.0
%%Creator: cairo 1.14.2 (http://cairographics.org)
%%CreationDate: Mon May 30 08:11:52 2016
%%Pages: 1
%%DocumentData: Clean7Bit
%%LanguageLevel: 2
%%BoundingBox: 0 0 392 344
%%EndComments
%%BeginProlog
save
50 dict begin
/q { gsave } bind def
/Q { grestore } bind def
/cm { 6 array astore concat } bind def
/w { setlinewidth } bind def
/J { setlinecap } bind def
/j { setlinejoin } bind def
/M { setmiterlimit } bind def
/d { setdash } bind def
/m { moveto } bind def
/l { lineto } bind def
/c { curveto } bind def
/h { closepath } bind def
/re { exch dup neg 3 1 roll 5 3 roll moveto 0 rlineto
      0 exch rlineto 0 rlineto closepath } bind def
/S { stroke } bind def
/f { fill } bind def
/f* { eofill } bind def
/n { newpath } bind def
/W { clip } bind def
/W* { eoclip } bind def
/BT { } bind def
/ET { } bind def
/pdfmark where { pop globaldict /?pdfmark /exec load put }
    { globaldict begin /?pdfmark /pop load def /pdfmark
    /cleartomark load def end } ifelse
/BDC { mark 3 1 roll /BDC pdfmark } bind def
/EMC { mark /EMC pdfmark } bind def
/cairo_store_point { /cairo_point_y exch def /cairo_point_x exch def } def
/Tj { show currentpoint cairo_store_point } bind def
/TJ {
  {
    dup
    type /stringtype eq
    { show } { -0.001 mul 0 cairo_font_matrix dtransform rmoveto } ifelse
  } forall
  currentpoint cairo_store_point
} bind def
/cairo_selectfont { cairo_font_matrix aload pop pop pop 0 0 6 array astore
    cairo_font exch selectfont cairo_point_x cairo_point_y moveto } bind def
/Tf { pop /cairo_font exch def /cairo_font_matrix where
      { pop cairo_selectfont } if } bind def
/Td { matrix translate cairo_font_matrix matrix concatmatrix dup
      /cairo_font_matrix exch def dup 4 get exch 5 get cairo_store_point
      /cairo_font where { pop cairo_selectfont } if } bind def
/Tm { 2 copy 8 2 roll 6 array astore /cairo_font_matrix exch def
      cairo_store_point /cairo_font where { pop cairo_selectfont } if } bind def
/g { setgray } bind def
/rg { setrgbcolor } bind def
/d1 { setcachedevice } bind def
%%EndProlog
%%BeginSetup
%%EndSetup
%%Page: 1 1
%%BeginPageSetup
%%PageBoundingBox: 0 0 392 344
%%EndPageSetup
q 0 0 392 344 rectclip q
0 g
373.625 343.001 m 18.375 343.001 l 8.27 343.001 0 334.731 0 324.626 c 0
 0.001 l 392 0.001 l 392 324.626 l 392 334.731 383.73 343.001 373.625 343.001
 c h
113.312 333.813 m 339.938 333.813 l 344.992 333.813 349.125 329.68 349.125
 324.626 c 349.125 319.575 344.992 315.438 339.938 315.438 c 113.312 315.438
 l 108.262 315.438 104.125 319.575 104.125 324.626 c 104.125 329.68 108.258
 333.813 113.312 333.813 c h
62.145 329.856 m 65.031 329.856 67.375 327.516 67.375 324.626 c 67.375 
321.735 65.031 319.395 62.145 319.395 c 59.254 319.395 56.91 321.735 56.91
 324.626 c 56.91 327.516 59.254 329.856 62.145 329.856 c h
30.754 319.395 m 27.863 319.395 25.523 321.735 25.523 324.626 c 25.523 
327.516 27.863 329.856 30.754 329.856 c 33.641 329.856 35.984 327.516 35.984
 324.626 c 35.984 321.735 33.641 319.395 30.754 319.395 c h
41.215 324.626 m 41.215 327.516 43.559 329.856 46.445 329.856 c 49.336 
329.856 51.68 327.516 51.68 324.626 c 51.68 321.735 49.336 319.395 46.445
 319.395 c 43.559 319.395 41.215 321.735 41.215 324.626 c h
177.656 35.2 m 42.906 35.2 l 42.906 41.325 l 177.656 41.325 l h
177.656 53.575 m 42.906 53.575 l 42.906 59.7 l 177.656 59.7 l h
177.656 71.95 m 42.906 71.95 l 42.906 78.075 l 177.656 78.075 l h
177.656 90.325 m 42.906 90.325 l 42.906 96.45 l 177.656 96.45 l h
177.656 108.7 m 42.906 108.7 l 42.906 114.825 l 177.656 114.825 l h
177.656 127.075 m 42.906 127.075 l 42.906 133.2 l 177.656 133.2 l h
177.656 145.45 m 42.906 145.45 l 42.906 151.575 l 177.656 151.575 l h
177.656 163.825 m 42.906 163.825 l 42.906 169.95 l 177.656 169.95 l h
177.656 182.2 m 42.906 182.2 l 42.906 188.325 l 177.656 188.325 l h
177.656 200.575 m 42.906 200.575 l 42.906 206.7 l 177.656 206.7 l h
177.656 218.95 m 42.906 218.95 l 42.906 225.075 l 177.656 225.075 l h
177.656 237.325 m 42.906 237.325 l 42.906 243.45 l 177.656 243.45 l h
177.656 255.7 m 42.906 255.7 l 42.906 261.825 l 177.656 261.825 l h
177.656 274.075 m 42.906 274.075 l 42.906 280.2 l 177.656 280.2 l h
349.156 35.2 m 214.406 35.2 l 214.406 41.325 l 349.156 41.325 l h
349.156 53.575 m 214.406 53.575 l 214.406 59.7 l 349.156 59.7 l h
349.156 71.95 m 214.406 71.95 l 214.406 78.075 l 349.156 78.075 l h
349.156 90.325 m 214.406 90.325 l 214.406 96.45 l 349.156 96.45 l h
349.156 108.7 m 214.406 108.7 l 214.406 114.825 l 349.156 114.825 l h
349.156 127.075 m 214.406 127.075 l 214.406 133.2 l 349.156 133.2 l h
349.156 145.45 m 214.406 145.45 l 214.406 151.575 l 349.156 151.575 l h
349.156 188.325 m 214.406 188.325 l 214.406 280.2 l 349.156 280.2 l h
349.156 188.325 m f
Q Q
showpage
%%Trailer
end restore
%%EOF
