%!PS-Adobe-3.0 EPSF-3.0
%%Creator: cairo 1.14.2 (http://cairographics.org)
%%CreationDate: Mon May 30 08:10:28 2016
%%Pages: 1
%%DocumentData: Clean7Bit
%%LanguageLevel: 2
%%BoundingBox: 0 0 392 343
%%EndComments
%%BeginProlog
save
50 dict begin
/q { gsave } bind def
/Q { grestore } bind def
/cm { 6 array astore concat } bind def
/w { setlinewidth } bind def
/J { setlinecap } bind def
/j { setlinejoin } bind def
/M { setmiterlimit } bind def
/d { setdash } bind def
/m { moveto } bind def
/l { lineto } bind def
/c { curveto } bind def
/h { closepath } bind def
/re { exch dup neg 3 1 roll 5 3 roll moveto 0 rlineto
      0 exch rlineto 0 rlineto closepath } bind def
/S { stroke } bind def
/f { fill } bind def
/f* { eofill } bind def
/n { newpath } bind def
/W { clip } bind def
/W* { eoclip } bind def
/BT { } bind def
/ET { } bind def
/pdfmark where { pop globaldict /?pdfmark /exec load put }
    { globaldict begin /?pdfmark /pop load def /pdfmark
    /cleartomark load def end } ifelse
/BDC { mark 3 1 roll /BDC pdfmark } bind def
/EMC { mark /EMC pdfmark } bind def
/cairo_store_point { /cairo_point_y exch def /cairo_point_x exch def } def
/Tj { show currentpoint cairo_store_point } bind def
/TJ {
  {
    dup
    type /stringtype eq
    { show } { -0.001 mul 0 cairo_font_matrix dtransform rmoveto } ifelse
  } forall
  currentpoint cairo_store_point
} bind def
/cairo_selectfont { cairo_font_matrix aload pop pop pop 0 0 6 array astore
    cairo_font exch selectfont cairo_point_x cairo_point_y moveto } bind def
/Tf { pop /cairo_font exch def /cairo_font_matrix where
      { pop cairo_selectfont } if } bind def
/Td { matrix translate cairo_font_matrix matrix concatmatrix dup
      /cairo_font_matrix exch def dup 4 get exch 5 get cairo_store_point
      /cairo_font where { pop cairo_selectfont } if } bind def
/Tm { 2 copy 8 2 roll 6 array astore /cairo_font_matrix exch def
      cairo_store_point /cairo_font where { pop cairo_selectfont } if } bind def
/g { setgray } bind def
/rg { setrgbcolor } bind def
/d1 { setcachedevice } bind def
%%EndProlog
%%BeginSetup
%%EndSetup
%%Page: 1 1
%%BeginPageSetup
%%PageBoundingBox: 0 0 392 343
%%EndPageSetup
q 0 0 392 343 rectclip q
0 g
373.625 343 m 18.375 343 l 8.27 343 0 334.73 0 324.625 c 0 0 l 392 0 l 
392 324.625 l 392 334.73 383.73 343 373.625 343 c h
62.145 329.855 m 65.031 329.855 67.375 327.516 67.375 324.625 c 67.375 
321.734 65.031 319.395 62.145 319.395 c 59.254 319.395 56.91 321.734 56.91
 324.625 c 56.91 327.516 59.254 329.855 62.145 329.855 c h
30.754 319.395 m 27.863 319.395 25.523 321.734 25.523 324.625 c 25.523 
327.516 27.863 329.859 30.754 329.859 c 33.641 329.859 35.984 327.516 35.984
 324.625 c 35.984 321.734 33.641 319.395 30.754 319.395 c h
41.215 324.625 m 41.215 327.516 43.559 329.855 46.445 329.855 c 49.336 
329.855 51.68 327.516 51.68 324.625 c 51.68 321.734 49.336 319.395 46.445
 319.395 c 43.559 319.395 41.215 321.734 41.215 324.625 c h
177.562 35.137 m 42.812 35.137 l 42.812 127.012 l 177.562 127.012 l h
177.562 163.762 m 42.812 163.762 l 42.812 169.887 l 177.562 169.887 l h
177.562 182.137 m 42.812 182.137 l 42.812 188.262 l 177.562 188.262 l h
177.562 200.512 m 42.812 200.512 l 42.812 206.637 l 177.562 206.637 l h
177.562 218.887 m 42.812 218.887 l 42.812 225.012 l 177.562 225.012 l h
177.562 237.262 m 42.812 237.262 l 42.812 243.387 l 177.562 243.387 l h
177.562 255.637 m 42.812 255.637 l 42.812 261.762 l 177.562 261.762 l h
177.562 274.012 m 42.812 274.012 l 42.812 280.137 l 177.562 280.137 l h
349.062 35.137 m 214.312 35.137 l 214.312 41.262 l 349.062 41.262 l h
349.062 53.512 m 214.312 53.512 l 214.312 59.637 l 349.062 59.637 l h
349.062 71.887 m 214.312 71.887 l 214.312 78.012 l 349.062 78.012 l h
349.062 90.262 m 214.312 90.262 l 214.312 96.387 l 349.062 96.387 l h
349.062 108.637 m 214.312 108.637 l 214.312 114.762 l 349.062 114.762 l
 h
349.062 127.012 m 214.312 127.012 l 214.312 133.137 l 349.062 133.137 l
 h
349.062 145.387 m 214.312 145.387 l 214.312 151.512 l 349.062 151.512 l
 h
349.062 163.762 m 214.312 163.762 l 214.312 169.887 l 349.062 169.887 l
 h
349.062 182.137 m 214.312 182.137 l 214.312 188.262 l 349.062 188.262 l
 h
349.062 200.512 m 214.312 200.512 l 214.312 206.637 l 349.062 206.637 l
 h
349.062 218.887 m 214.312 218.887 l 214.312 225.012 l 349.062 225.012 l
 h
349.062 237.262 m 214.312 237.262 l 214.312 243.387 l 349.062 243.387 l
 h
349.062 255.637 m 214.312 255.637 l 214.312 261.762 l 349.062 261.762 l
 h
349.062 274.012 m 214.312 274.012 l 214.312 280.137 l 349.062 280.137 l
 h
339.938 315.438 m 113.312 315.438 l 108.262 315.438 104.125 319.57 104.125
 324.625 c 104.125 329.676 108.262 333.812 113.312 333.812 c 339.938 333.812
 l 344.992 333.812 349.125 329.676 349.125 324.625 c 349.125 319.57 344.992
 315.438 339.938 315.438 c h
339.938 315.438 m f
Q Q
showpage
%%Trailer
end restore
%%EOF
