%!PS-Adobe-3.0 EPSF-3.0
%%Creator: cairo 1.14.2 (http://cairographics.org)
%%CreationDate: Mon May 30 08:10:42 2016
%%Pages: 1
%%DocumentData: Clean7Bit
%%LanguageLevel: 2
%%BoundingBox: 0 0 392 344
%%EndComments
%%BeginProlog
save
50 dict begin
/q { gsave } bind def
/Q { grestore } bind def
/cm { 6 array astore concat } bind def
/w { setlinewidth } bind def
/J { setlinecap } bind def
/j { setlinejoin } bind def
/M { setmiterlimit } bind def
/d { setdash } bind def
/m { moveto } bind def
/l { lineto } bind def
/c { curveto } bind def
/h { closepath } bind def
/re { exch dup neg 3 1 roll 5 3 roll moveto 0 rlineto
      0 exch rlineto 0 rlineto closepath } bind def
/S { stroke } bind def
/f { fill } bind def
/f* { eofill } bind def
/n { newpath } bind def
/W { clip } bind def
/W* { eoclip } bind def
/BT { } bind def
/ET { } bind def
/pdfmark where { pop globaldict /?pdfmark /exec load put }
    { globaldict begin /?pdfmark /pop load def /pdfmark
    /cleartomark load def end } ifelse
/BDC { mark 3 1 roll /BDC pdfmark } bind def
/EMC { mark /EMC pdfmark } bind def
/cairo_store_point { /cairo_point_y exch def /cairo_point_x exch def } def
/Tj { show currentpoint cairo_store_point } bind def
/TJ {
  {
    dup
    type /stringtype eq
    { show } { -0.001 mul 0 cairo_font_matrix dtransform rmoveto } ifelse
  } forall
  currentpoint cairo_store_point
} bind def
/cairo_selectfont { cairo_font_matrix aload pop pop pop 0 0 6 array astore
    cairo_font exch selectfont cairo_point_x cairo_point_y moveto } bind def
/Tf { pop /cairo_font exch def /cairo_font_matrix where
      { pop cairo_selectfont } if } bind def
/Td { matrix translate cairo_font_matrix matrix concatmatrix dup
      /cairo_font_matrix exch def dup 4 get exch 5 get cairo_store_point
      /cairo_font where { pop cairo_selectfont } if } bind def
/Tm { 2 copy 8 2 roll 6 array astore /cairo_font_matrix exch def
      cairo_store_point /cairo_font where { pop cairo_selectfont } if } bind def
/g { setgray } bind def
/rg { setrgbcolor } bind def
/d1 { setcachedevice } bind def
%%EndProlog
%%BeginSetup
%%EndSetup
%%Page: 1 1
%%BeginPageSetup
%%PageBoundingBox: 0 0 392 344
%%EndPageSetup
q 0 0 392 344 rectclip q
0 g
177.535 234.153 m 177.535 170.501 l 232.66 202.325 l h
177.535 234.153 m f
373.625 343.001 m 18.375 343.001 l 8.27 343.001 0 334.731 0 324.626 c 0
 0.001 l 392 0.001 l 392 324.626 l 392 334.731 383.73 343.001 373.625 343.001
 c h
62.145 329.856 m 65.031 329.856 67.375 327.516 67.375 324.626 c 67.375 
321.735 65.031 319.395 62.145 319.395 c 59.254 319.395 56.91 321.735 56.91
 324.626 c 56.91 327.516 59.254 329.856 62.145 329.856 c h
30.754 319.395 m 27.863 319.395 25.523 321.735 25.523 324.626 c 25.523 
327.516 27.863 329.86 30.754 329.86 c 33.641 329.86 35.984 327.516 35.984
 324.626 c 35.984 321.735 33.641 319.395 30.754 319.395 c h
41.215 324.626 m 41.215 327.516 43.559 329.856 46.445 329.856 c 49.336 
329.856 51.68 327.516 51.68 324.626 c 51.68 321.735 49.336 319.395 46.445
 319.395 c 43.559 319.395 41.215 321.735 41.215 324.626 c h
177.625 50.403 m 42.875 50.403 l 42.875 56.528 l 177.625 56.528 l h
177.625 68.778 m 42.875 68.778 l 42.875 74.903 l 177.625 74.903 l h
177.625 87.153 m 42.875 87.153 l 42.875 93.278 l 177.625 93.278 l h
108.629 142.278 m 108.629 255.591 l 108.629 260.641 112.762 264.778 117.816
 264.778 c 274.004 264.778 l 279.055 264.778 283.191 260.641 283.191 255.591
 c 283.191 142.278 l 283.191 137.223 279.055 133.091 274.004 133.091 c 117.816
 133.091 l 112.762 133.091 108.629 137.223 108.629 142.278 c h
349.125 50.403 m 214.375 50.403 l 214.375 56.528 l 349.125 56.528 l h
349.125 68.778 m 214.375 68.778 l 214.375 74.903 l 349.125 74.903 l h
349.125 87.153 m 214.375 87.153 l 214.375 93.278 l 349.125 93.278 l h
339.938 315.438 m 113.312 315.438 l 108.262 315.438 104.125 319.571 104.125
 324.626 c 104.125 329.677 108.262 333.813 113.312 333.813 c 339.938 333.813
 l 344.992 333.813 349.125 329.677 349.125 324.626 c 349.125 319.571 344.992
 315.438 339.938 315.438 c h
339.938 315.438 m f
Q Q
showpage
%%Trailer
end restore
%%EOF
