%!PS-Adobe-3.0 EPSF-3.0
%%Creator: cairo 1.14.2 (http://cairographics.org)
%%CreationDate: Mon May 30 08:12:45 2016
%%Pages: 1
%%DocumentData: Clean7Bit
%%LanguageLevel: 2
%%BoundingBox: 0 0 392 344
%%EndComments
%%BeginProlog
save
50 dict begin
/q { gsave } bind def
/Q { grestore } bind def
/cm { 6 array astore concat } bind def
/w { setlinewidth } bind def
/J { setlinecap } bind def
/j { setlinejoin } bind def
/M { setmiterlimit } bind def
/d { setdash } bind def
/m { moveto } bind def
/l { lineto } bind def
/c { curveto } bind def
/h { closepath } bind def
/re { exch dup neg 3 1 roll 5 3 roll moveto 0 rlineto
      0 exch rlineto 0 rlineto closepath } bind def
/S { stroke } bind def
/f { fill } bind def
/f* { eofill } bind def
/n { newpath } bind def
/W { clip } bind def
/W* { eoclip } bind def
/BT { } bind def
/ET { } bind def
/pdfmark where { pop globaldict /?pdfmark /exec load put }
    { globaldict begin /?pdfmark /pop load def /pdfmark
    /cleartomark load def end } ifelse
/BDC { mark 3 1 roll /BDC pdfmark } bind def
/EMC { mark /EMC pdfmark } bind def
/cairo_store_point { /cairo_point_y exch def /cairo_point_x exch def } def
/Tj { show currentpoint cairo_store_point } bind def
/TJ {
  {
    dup
    type /stringtype eq
    { show } { -0.001 mul 0 cairo_font_matrix dtransform rmoveto } ifelse
  } forall
  currentpoint cairo_store_point
} bind def
/cairo_selectfont { cairo_font_matrix aload pop pop pop 0 0 6 array astore
    cairo_font exch selectfont cairo_point_x cairo_point_y moveto } bind def
/Tf { pop /cairo_font exch def /cairo_font_matrix where
      { pop cairo_selectfont } if } bind def
/Td { matrix translate cairo_font_matrix matrix concatmatrix dup
      /cairo_font_matrix exch def dup 4 get exch 5 get cairo_store_point
      /cairo_font where { pop cairo_selectfont } if } bind def
/Tm { 2 copy 8 2 roll 6 array astore /cairo_font_matrix exch def
      cairo_store_point /cairo_font where { pop cairo_selectfont } if } bind def
/g { setgray } bind def
/rg { setrgbcolor } bind def
/d1 { setcachedevice } bind def
%%EndProlog
%%BeginSetup
%%EndSetup
%%Page: 1 1
%%BeginPageSetup
%%PageBoundingBox: 0 0 392 344
%%EndPageSetup
q 0 0 392 344 rectclip q
0 g
373.625 343.001 m 18.375 343.001 l 8.27 343.001 0 334.731 0 324.626 c 0
 0.001 l 392 0.001 l 392 324.626 l 392 334.731 383.73 343.001 373.625 343.001
 c h
62.145 329.856 m 65.031 329.856 67.375 327.516 67.375 324.626 c 67.375 
321.735 65.031 319.395 62.145 319.395 c 59.254 319.395 56.91 321.735 56.91
 324.626 c 56.91 327.516 59.254 329.856 62.145 329.856 c h
30.754 319.395 m 27.863 319.395 25.523 321.735 25.523 324.626 c 25.523 
327.516 27.863 329.856 30.754 329.856 c 33.641 329.856 35.984 327.516 35.984
 324.626 c 35.984 321.735 33.641 319.395 30.754 319.395 c h
41.215 324.626 m 41.215 327.516 43.559 329.856 46.445 329.856 c 49.336 
329.856 51.68 327.516 51.68 324.626 c 51.68 321.735 49.336 319.395 46.445
 319.395 c 43.559 319.395 41.215 321.735 41.215 324.626 c h
98 50.501 m 42.875 50.501 l 42.875 56.626 l 98 56.626 l h
98 68.876 m 42.875 68.876 l 42.875 75.001 l 98 75.001 l h
98 87.255 m 42.875 87.255 l 42.875 93.376 l 98 93.376 l h
98 136.255 m 42.875 136.255 l 42.875 142.376 l 98 142.376 l h
98 154.626 m 42.875 154.626 l 42.875 160.751 l 98 160.751 l h
98 173.001 m 42.875 173.001 l 42.875 179.126 l 98 179.126 l h
98 222.001 m 42.875 222.001 l 42.875 228.126 l 98 228.126 l h
98 240.376 m 42.875 240.376 l 42.875 246.501 l 98 246.501 l h
98 258.755 m 42.875 258.755 l 42.875 264.88 l 98 264.88 l h
183.75 44.38 m 122.5 44.38 l 122.5 99.505 l 183.75 99.505 l h
183.75 130.13 m 122.5 130.13 l 122.5 185.255 l 183.75 185.255 l h
183.75 215.88 m 122.5 215.88 l 122.5 271.005 l 183.75 271.005 l h
263.375 50.501 m 208.25 50.501 l 208.25 56.626 l 263.375 56.626 l h
263.375 68.876 m 208.25 68.876 l 208.25 75.001 l 263.375 75.001 l h
263.375 87.255 m 208.25 87.255 l 208.25 93.376 l 263.375 93.376 l h
263.375 136.255 m 208.25 136.255 l 208.25 142.376 l 263.375 142.376 l h
263.375 154.626 m 208.25 154.626 l 208.25 160.751 l 263.375 160.751 l h
263.375 173.001 m 208.25 173.001 l 208.25 179.126 l 263.375 179.126 l h
263.375 222.001 m 208.25 222.001 l 208.25 228.126 l 263.375 228.126 l h
263.375 240.376 m 208.25 240.376 l 208.25 246.501 l 263.375 246.501 l h
263.375 258.755 m 208.25 258.755 l 208.25 264.876 l 263.375 264.876 l h
349.125 44.38 m 287.875 44.38 l 287.875 99.505 l 349.125 99.505 l h
349.125 130.13 m 287.875 130.13 l 287.875 185.255 l 349.125 185.255 l h
349.125 215.88 m 287.875 215.88 l 287.875 271.005 l 349.125 271.005 l h
339.938 315.438 m 113.312 315.438 l 108.262 315.438 104.125 319.571 104.125
 324.626 c 104.125 329.677 108.262 333.813 113.312 333.813 c 339.938 333.813
 l 344.992 333.813 349.125 329.677 349.125 324.626 c 349.125 319.571 344.992
 315.438 339.938 315.438 c h
339.938 315.438 m f
Q Q
showpage
%%Trailer
end restore
%%EOF
