%!PS-Adobe-3.0 EPSF-3.0
%%Creator: cairo 1.14.2 (http://cairographics.org)
%%CreationDate: Mon May 30 08:10:32 2016
%%Pages: 1
%%DocumentData: Clean7Bit
%%LanguageLevel: 2
%%BoundingBox: 0 0 392 344
%%EndComments
%%BeginProlog
save
50 dict begin
/q { gsave } bind def
/Q { grestore } bind def
/cm { 6 array astore concat } bind def
/w { setlinewidth } bind def
/J { setlinecap } bind def
/j { setlinejoin } bind def
/M { setmiterlimit } bind def
/d { setdash } bind def
/m { moveto } bind def
/l { lineto } bind def
/c { curveto } bind def
/h { closepath } bind def
/re { exch dup neg 3 1 roll 5 3 roll moveto 0 rlineto
      0 exch rlineto 0 rlineto closepath } bind def
/S { stroke } bind def
/f { fill } bind def
/f* { eofill } bind def
/n { newpath } bind def
/W { clip } bind def
/W* { eoclip } bind def
/BT { } bind def
/ET { } bind def
/pdfmark where { pop globaldict /?pdfmark /exec load put }
    { globaldict begin /?pdfmark /pop load def /pdfmark
    /cleartomark load def end } ifelse
/BDC { mark 3 1 roll /BDC pdfmark } bind def
/EMC { mark /EMC pdfmark } bind def
/cairo_store_point { /cairo_point_y exch def /cairo_point_x exch def } def
/Tj { show currentpoint cairo_store_point } bind def
/TJ {
  {
    dup
    type /stringtype eq
    { show } { -0.001 mul 0 cairo_font_matrix dtransform rmoveto } ifelse
  } forall
  currentpoint cairo_store_point
} bind def
/cairo_selectfont { cairo_font_matrix aload pop pop pop 0 0 6 array astore
    cairo_font exch selectfont cairo_point_x cairo_point_y moveto } bind def
/Tf { pop /cairo_font exch def /cairo_font_matrix where
      { pop cairo_selectfont } if } bind def
/Td { matrix translate cairo_font_matrix matrix concatmatrix dup
      /cairo_font_matrix exch def dup 4 get exch 5 get cairo_store_point
      /cairo_font where { pop cairo_selectfont } if } bind def
/Tm { 2 copy 8 2 roll 6 array astore /cairo_font_matrix exch def
      cairo_store_point /cairo_font where { pop cairo_selectfont } if } bind def
/g { setgray } bind def
/rg { setrgbcolor } bind def
/d1 { setcachedevice } bind def
%%EndProlog
%%BeginSetup
%%EndSetup
%%Page: 1 1
%%BeginPageSetup
%%PageBoundingBox: 0 0 392 344
%%EndPageSetup
q 0 0 392 344 rectclip q
0 g
373.625 343.001 m 18.375 343.001 l 8.27 343.001 0 334.731 0 324.626 c 0
 0.001 l 392 0.001 l 392 324.626 l 392 334.731 383.73 343.001 373.625 343.001
 c h
113.312 333.813 m 339.938 333.813 l 344.988 333.813 349.125 329.68 349.125
 324.626 c 349.125 319.575 344.988 315.438 339.938 315.438 c 113.312 315.438
 l 108.258 315.438 104.125 319.575 104.125 324.626 c 104.125 329.68 108.258
 333.813 113.312 333.813 c h
42.887 126.962 m 42.887 133.087 l 168.988 133.087 l 168.988 126.962 l h
168.988 114.708 m 168.988 108.587 l 42.887 108.587 l 42.887 114.708 l h
42.887 145.337 m 42.887 151.462 l 168.988 151.462 l 168.988 145.337 l h
42.887 163.712 m 42.887 169.837 l 168.988 169.837 l 168.988 163.712 l h
42.887 182.087 m 42.887 188.208 l 168.988 188.208 l 168.988 182.087 l h
42.887 200.462 m 42.887 206.587 l 168.988 206.587 l 168.988 200.462 l h
42.887 218.837 m 42.887 224.962 l 168.988 224.962 l 168.988 218.837 l h
42.887 237.208 m 42.887 243.333 l 168.988 243.333 l 168.988 237.208 l h
42.887 255.587 m 42.887 261.708 l 168.988 261.708 l 168.988 255.587 l h
42.887 273.962 m 42.887 280.087 l 168.988 280.087 l 168.988 273.962 l h
62.141 329.856 m 65.031 329.856 67.375 327.516 67.375 324.626 c 67.375 
321.735 65.031 319.395 62.141 319.395 c 59.254 319.395 56.91 321.735 56.91
 324.626 c 56.91 327.516 59.254 329.856 62.141 329.856 c h
30.754 319.395 m 27.863 319.395 25.52 321.735 25.52 324.626 c 25.52 327.516
 27.863 329.856 30.754 329.856 c 33.641 329.856 35.984 327.516 35.984 324.626
 c 35.984 321.735 33.641 319.395 30.754 319.395 c h
41.215 324.626 m 41.215 327.516 43.559 329.856 46.445 329.856 c 49.336 
329.856 51.68 327.516 51.68 324.626 c 51.68 321.735 49.336 319.395 46.445
 319.395 c 43.559 319.395 41.215 321.735 41.215 324.626 c h
349.137 35.087 m 42.887 35.087 l 42.887 41.208 l 349.137 41.208 l h
349.137 53.462 m 42.887 53.462 l 42.887 59.587 l 349.137 59.587 l h
349.137 71.837 m 42.887 71.837 l 42.887 77.962 l 349.137 77.962 l h
349.137 90.208 m 42.887 90.208 l 42.887 96.333 l 349.137 96.333 l h
349.137 126.962 m 198.957 126.962 l 198.957 194.337 l 349.137 194.337 l
 h
349.137 212.712 m 198.957 212.712 l 198.957 280.087 l 349.137 280.087 l
 h
349.137 212.712 m f
Q Q
showpage
%%Trailer
end restore
%%EOF
