%!PS-Adobe-3.0 EPSF-3.0
%%Creator: cairo 1.14.2 (http://cairographics.org)
%%CreationDate: Mon May 30 08:10:57 2016
%%Pages: 1
%%DocumentData: Clean7Bit
%%LanguageLevel: 2
%%BoundingBox: 0 0 392 344
%%EndComments
%%BeginProlog
save
50 dict begin
/q { gsave } bind def
/Q { grestore } bind def
/cm { 6 array astore concat } bind def
/w { setlinewidth } bind def
/J { setlinecap } bind def
/j { setlinejoin } bind def
/M { setmiterlimit } bind def
/d { setdash } bind def
/m { moveto } bind def
/l { lineto } bind def
/c { curveto } bind def
/h { closepath } bind def
/re { exch dup neg 3 1 roll 5 3 roll moveto 0 rlineto
      0 exch rlineto 0 rlineto closepath } bind def
/S { stroke } bind def
/f { fill } bind def
/f* { eofill } bind def
/n { newpath } bind def
/W { clip } bind def
/W* { eoclip } bind def
/BT { } bind def
/ET { } bind def
/pdfmark where { pop globaldict /?pdfmark /exec load put }
    { globaldict begin /?pdfmark /pop load def /pdfmark
    /cleartomark load def end } ifelse
/BDC { mark 3 1 roll /BDC pdfmark } bind def
/EMC { mark /EMC pdfmark } bind def
/cairo_store_point { /cairo_point_y exch def /cairo_point_x exch def } def
/Tj { show currentpoint cairo_store_point } bind def
/TJ {
  {
    dup
    type /stringtype eq
    { show } { -0.001 mul 0 cairo_font_matrix dtransform rmoveto } ifelse
  } forall
  currentpoint cairo_store_point
} bind def
/cairo_selectfont { cairo_font_matrix aload pop pop pop 0 0 6 array astore
    cairo_font exch selectfont cairo_point_x cairo_point_y moveto } bind def
/Tf { pop /cairo_font exch def /cairo_font_matrix where
      { pop cairo_selectfont } if } bind def
/Td { matrix translate cairo_font_matrix matrix concatmatrix dup
      /cairo_font_matrix exch def dup 4 get exch 5 get cairo_store_point
      /cairo_font where { pop cairo_selectfont } if } bind def
/Tm { 2 copy 8 2 roll 6 array astore /cairo_font_matrix exch def
      cairo_store_point /cairo_font where { pop cairo_selectfont } if } bind def
/g { setgray } bind def
/rg { setrgbcolor } bind def
/d1 { setcachedevice } bind def
%%EndProlog
%%BeginSetup
%%EndSetup
%%Page: 1 1
%%BeginPageSetup
%%PageBoundingBox: 0 0 392 344
%%EndPageSetup
q 0 0 392 344 rectclip q
0 g
373.625 343.001 m 18.375 343.001 l 8.27 343.001 0 334.731 0 324.626 c 0
 0.001 l 392 0.001 l 392 324.626 l 392 334.731 383.73 343.001 373.625 343.001
 c h
113.312 333.813 m 339.938 333.813 l 344.992 333.813 349.125 329.68 349.125
 324.626 c 349.125 319.575 344.992 315.438 339.938 315.438 c 113.312 315.438
 l 108.262 315.438 104.125 319.575 104.125 324.626 c 104.125 329.68 108.258
 333.813 113.312 333.813 c h
62.145 329.856 m 65.031 329.856 67.375 327.516 67.375 324.626 c 67.375 
321.735 65.031 319.395 62.145 319.395 c 59.254 319.395 56.91 321.735 56.91
 324.626 c 56.91 327.516 59.254 329.856 62.145 329.856 c h
30.754 319.395 m 27.863 319.395 25.523 321.735 25.523 324.626 c 25.523 
327.516 27.863 329.856 30.754 329.856 c 33.641 329.856 35.984 327.516 35.984
 324.626 c 35.984 321.735 33.641 319.395 30.754 319.395 c h
41.215 324.626 m 41.215 327.516 43.559 329.856 46.445 329.856 c 49.336 
329.856 51.68 327.516 51.68 324.626 c 51.68 321.735 49.336 319.395 46.445
 319.395 c 43.559 319.395 41.215 321.735 41.215 324.626 c h
130.582 38.399 m 43.031 38.399 l 43.031 105.774 l 130.582 105.774 l h
130.582 124.149 m 43.031 124.149 l 43.031 191.524 l 130.582 191.524 l h
130.582 209.899 m 43.031 209.899 l 43.031 277.274 l 130.582 277.274 l h
149.316 277.274 m 239.031 277.274 l 239.031 209.899 l 149.316 209.899 l
 h
349.281 38.399 m 149.316 38.399 l 149.316 44.524 l 349.281 44.524 l h
349.281 56.774 m 149.316 56.774 l 149.316 62.899 l 349.281 62.899 l h
349.281 75.149 m 149.316 75.149 l 149.316 81.274 l 349.281 81.274 l h
349.281 93.524 m 149.316 93.524 l 149.316 99.649 l 349.281 99.649 l h
349.281 111.899 m 149.316 111.899 l 149.316 118.024 l 349.281 118.024 l
 h
349.281 130.274 m 149.316 130.274 l 149.316 136.399 l 349.281 136.399 l
 h
349.281 148.649 m 149.316 148.649 l 149.316 154.774 l 349.281 154.774 l
 h
349.281 167.024 m 149.316 167.024 l 149.316 173.149 l 349.281 173.149 l
 h
349.281 185.399 m 149.316 185.399 l 149.316 191.524 l 349.281 191.524 l
 h
349.281 209.899 m 258.387 209.899 l 258.387 277.274 l 349.281 277.274 l
 h
349.281 209.899 m f
Q Q
showpage
%%Trailer
end restore
%%EOF
