%!PS-Adobe-3.0 EPSF-3.0
%%Creator: cairo 1.14.2 (http://cairographics.org)
%%CreationDate: Mon May 30 08:11:59 2016
%%Pages: 1
%%DocumentData: Clean7Bit
%%LanguageLevel: 2
%%BoundingBox: 0 0 392 344
%%EndComments
%%BeginProlog
save
50 dict begin
/q { gsave } bind def
/Q { grestore } bind def
/cm { 6 array astore concat } bind def
/w { setlinewidth } bind def
/J { setlinecap } bind def
/j { setlinejoin } bind def
/M { setmiterlimit } bind def
/d { setdash } bind def
/m { moveto } bind def
/l { lineto } bind def
/c { curveto } bind def
/h { closepath } bind def
/re { exch dup neg 3 1 roll 5 3 roll moveto 0 rlineto
      0 exch rlineto 0 rlineto closepath } bind def
/S { stroke } bind def
/f { fill } bind def
/f* { eofill } bind def
/n { newpath } bind def
/W { clip } bind def
/W* { eoclip } bind def
/BT { } bind def
/ET { } bind def
/pdfmark where { pop globaldict /?pdfmark /exec load put }
    { globaldict begin /?pdfmark /pop load def /pdfmark
    /cleartomark load def end } ifelse
/BDC { mark 3 1 roll /BDC pdfmark } bind def
/EMC { mark /EMC pdfmark } bind def
/cairo_store_point { /cairo_point_y exch def /cairo_point_x exch def } def
/Tj { show currentpoint cairo_store_point } bind def
/TJ {
  {
    dup
    type /stringtype eq
    { show } { -0.001 mul 0 cairo_font_matrix dtransform rmoveto } ifelse
  } forall
  currentpoint cairo_store_point
} bind def
/cairo_selectfont { cairo_font_matrix aload pop pop pop 0 0 6 array astore
    cairo_font exch selectfont cairo_point_x cairo_point_y moveto } bind def
/Tf { pop /cairo_font exch def /cairo_font_matrix where
      { pop cairo_selectfont } if } bind def
/Td { matrix translate cairo_font_matrix matrix concatmatrix dup
      /cairo_font_matrix exch def dup 4 get exch 5 get cairo_store_point
      /cairo_font where { pop cairo_selectfont } if } bind def
/Tm { 2 copy 8 2 roll 6 array astore /cairo_font_matrix exch def
      cairo_store_point /cairo_font where { pop cairo_selectfont } if } bind def
/g { setgray } bind def
/rg { setrgbcolor } bind def
/d1 { setcachedevice } bind def
%%EndProlog
%%BeginSetup
%%EndSetup
%%Page: 1 1
%%BeginPageSetup
%%PageBoundingBox: 0 0 392 344
%%EndPageSetup
q 0 0 392 344 rectclip q
0 g
373.625 343.001 m 18.375 343.001 l 8.27 343.001 0 334.731 0 324.626 c 0
 0.001 l 392 0.001 l 392 324.626 l 392 334.731 383.73 343.001 373.625 343.001
 c h
62.145 329.856 m 65.031 329.856 67.375 327.516 67.375 324.626 c 67.375 
321.735 65.031 319.395 62.145 319.395 c 59.254 319.395 56.91 321.735 56.91
 324.626 c 56.91 327.516 59.254 329.856 62.145 329.856 c h
30.754 319.395 m 27.863 319.395 25.523 321.735 25.523 324.626 c 25.523 
327.516 27.863 329.856 30.754 329.856 c 33.641 329.856 35.984 327.516 35.984
 324.626 c 35.984 321.735 33.641 319.395 30.754 319.395 c h
41.215 324.626 m 41.215 327.516 43.559 329.856 46.445 329.856 c 49.336 
329.856 51.68 327.516 51.68 324.626 c 51.68 321.735 49.336 319.395 46.445
 319.395 c 43.559 319.395 41.215 321.735 41.215 324.626 c h
177.594 35.169 m 42.844 35.169 l 42.844 41.294 l 177.594 41.294 l h
177.594 53.544 m 42.844 53.544 l 42.844 59.669 l 177.594 59.669 l h
177.594 71.919 m 42.844 71.919 l 42.844 78.044 l 177.594 78.044 l h
177.594 90.294 m 42.844 90.294 l 42.844 96.419 l 177.594 96.419 l h
177.594 108.669 m 42.844 108.669 l 42.844 114.794 l 177.594 114.794 l h
177.594 127.044 m 42.844 127.044 l 42.844 133.169 l 177.594 133.169 l h
177.594 145.419 m 42.844 145.419 l 42.844 151.544 l 177.594 151.544 l h
177.594 163.794 m 42.844 163.794 l 42.844 169.919 l 177.594 169.919 l h
177.594 182.169 m 42.844 182.169 l 42.844 188.294 l 177.594 188.294 l h
177.594 200.544 m 42.844 200.544 l 42.844 206.669 l 177.594 206.669 l h
177.594 218.919 m 42.844 218.919 l 42.844 225.044 l 177.594 225.044 l h
177.594 237.294 m 42.844 237.294 l 42.844 243.419 l 177.594 243.419 l h
177.594 255.669 m 42.844 255.669 l 42.844 261.794 l 177.594 261.794 l h
177.594 274.044 m 42.844 274.044 l 42.844 280.169 l 177.594 280.169 l h
349.094 35.169 m 214.344 35.169 l 214.344 41.294 l 349.094 41.294 l h
349.094 53.544 m 214.344 53.544 l 214.344 59.669 l 349.094 59.669 l h
349.094 71.919 m 214.344 71.919 l 214.344 78.044 l 349.094 78.044 l h
349.094 90.294 m 214.344 90.294 l 214.344 96.419 l 349.094 96.419 l h
349.094 108.669 m 214.344 108.669 l 214.344 114.794 l 349.094 114.794 l
 h
349.094 127.044 m 214.344 127.044 l 214.344 133.169 l 349.094 133.169 l
 h
349.094 145.419 m 214.344 145.419 l 214.344 151.544 l 349.094 151.544 l
 h
349.094 163.794 m 214.344 163.794 l 214.344 169.919 l 349.094 169.919 l
 h
349.094 182.169 m 214.344 182.169 l 214.344 188.294 l 349.094 188.294 l
 h
349.094 200.544 m 214.344 200.544 l 214.344 206.669 l 349.094 206.669 l
 h
349.094 218.919 m 214.344 218.919 l 214.344 225.044 l 349.094 225.044 l
 h
349.094 237.294 m 214.344 237.294 l 214.344 243.419 l 349.094 243.419 l
 h
349.094 255.669 m 214.344 255.669 l 214.344 261.794 l 349.094 261.794 l
 h
349.094 274.044 m 214.344 274.044 l 214.344 280.169 l 349.094 280.169 l
 h
339.938 315.438 m 113.312 315.438 l 108.262 315.438 104.125 319.571 104.125
 324.626 c 104.125 329.677 108.262 333.813 113.312 333.813 c 339.938 333.813
 l 344.992 333.813 349.125 329.677 349.125 324.626 c 349.125 319.571 344.992
 315.438 339.938 315.438 c h
339.938 315.438 m f
Q Q
showpage
%%Trailer
end restore
%%EOF
