%!PS-Adobe-3.0 EPSF-3.0
%%Creator: cairo 1.14.2 (http://cairographics.org)
%%CreationDate: Mon May 30 08:10:14 2016
%%Pages: 1
%%DocumentData: Clean7Bit
%%LanguageLevel: 2
%%BoundingBox: 0 0 392 343
%%EndComments
%%BeginProlog
save
50 dict begin
/q { gsave } bind def
/Q { grestore } bind def
/cm { 6 array astore concat } bind def
/w { setlinewidth } bind def
/J { setlinecap } bind def
/j { setlinejoin } bind def
/M { setmiterlimit } bind def
/d { setdash } bind def
/m { moveto } bind def
/l { lineto } bind def
/c { curveto } bind def
/h { closepath } bind def
/re { exch dup neg 3 1 roll 5 3 roll moveto 0 rlineto
      0 exch rlineto 0 rlineto closepath } bind def
/S { stroke } bind def
/f { fill } bind def
/f* { eofill } bind def
/n { newpath } bind def
/W { clip } bind def
/W* { eoclip } bind def
/BT { } bind def
/ET { } bind def
/pdfmark where { pop globaldict /?pdfmark /exec load put }
    { globaldict begin /?pdfmark /pop load def /pdfmark
    /cleartomark load def end } ifelse
/BDC { mark 3 1 roll /BDC pdfmark } bind def
/EMC { mark /EMC pdfmark } bind def
/cairo_store_point { /cairo_point_y exch def /cairo_point_x exch def } def
/Tj { show currentpoint cairo_store_point } bind def
/TJ {
  {
    dup
    type /stringtype eq
    { show } { -0.001 mul 0 cairo_font_matrix dtransform rmoveto } ifelse
  } forall
  currentpoint cairo_store_point
} bind def
/cairo_selectfont { cairo_font_matrix aload pop pop pop 0 0 6 array astore
    cairo_font exch selectfont cairo_point_x cairo_point_y moveto } bind def
/Tf { pop /cairo_font exch def /cairo_font_matrix where
      { pop cairo_selectfont } if } bind def
/Td { matrix translate cairo_font_matrix matrix concatmatrix dup
      /cairo_font_matrix exch def dup 4 get exch 5 get cairo_store_point
      /cairo_font where { pop cairo_selectfont } if } bind def
/Tm { 2 copy 8 2 roll 6 array astore /cairo_font_matrix exch def
      cairo_store_point /cairo_font where { pop cairo_selectfont } if } bind def
/g { setgray } bind def
/rg { setrgbcolor } bind def
/d1 { setcachedevice } bind def
%%EndProlog
%%BeginSetup
%%EndSetup
%%Page: 1 1
%%BeginPageSetup
%%PageBoundingBox: 0 0 392 343
%%EndPageSetup
q 0 0 392 343 rectclip q
0 g
373.625 343 m 18.375 343 l 8.27 343 0 334.73 0 324.625 c 0 0 l 392 0 l 
392 324.625 l 392 334.73 383.73 343 373.625 343 c h
62.145 329.855 m 65.031 329.855 67.375 327.516 67.375 324.625 c 67.375 
321.734 65.031 319.395 62.145 319.395 c 59.254 319.395 56.91 321.734 56.91
 324.625 c 56.91 327.516 59.254 329.855 62.145 329.855 c h
132.953 209.668 m 42.844 209.668 l 42.844 277.043 l 132.953 277.043 l h
134.719 191.293 m 134.719 123.914 l 42.844 123.914 l 42.844 191.293 l h
30.754 319.395 m 27.863 319.395 25.523 321.734 25.523 324.625 c 25.523 
327.516 27.863 329.859 30.754 329.859 c 33.641 329.859 35.984 327.516 35.984
 324.625 c 35.984 321.734 33.641 319.395 30.754 319.395 c h
41.215 324.625 m 41.215 327.516 43.559 329.855 46.445 329.855 c 49.336 
329.855 51.68 327.516 51.68 324.625 c 51.68 321.734 49.336 319.395 46.445
 319.395 c 43.559 319.395 41.215 321.734 41.215 324.625 c h
349.094 38.168 m 42.844 38.168 l 42.844 105.543 l 349.094 105.543 l h
242.805 191.293 m 242.805 123.914 l 149.129 123.914 l 149.129 191.293 l
 h
149.129 209.668 m 149.129 277.043 l 242.805 277.043 l 242.805 209.668 l
 h
349.094 123.918 m 257.254 123.918 l 257.254 191.293 l 349.094 191.293 l
 h
349.094 209.668 m 257.254 209.668 l 257.254 277.043 l 349.094 277.043 l
 h
339.938 315.438 m 113.312 315.438 l 108.262 315.438 104.125 319.57 104.125
 324.625 c 104.125 329.676 108.262 333.812 113.312 333.812 c 339.938 333.812
 l 344.992 333.812 349.125 329.676 349.125 324.625 c 349.125 319.57 344.992
 315.438 339.938 315.438 c h
339.938 315.438 m f
Q Q
showpage
%%Trailer
end restore
%%EOF
